<svg width="32" height="29" viewBox="0 0 32 29" fill="none" xmlns="http://www.w3.org/2000/svg">
<g clip-path="url(#clip0_2_13684)">
<path d="M32.0002 4.64322V24.1031C31.9763 24.1359 31.9572 24.1719 31.9434 24.2102C31.3748 27.0478 29.0511 28.9968 26.2197 28.9977C19.3869 28.9977 12.5547 28.9977 5.72302 28.9977C4.96965 28.9965 4.22389 28.8443 3.52842 28.5496C2.83294 28.2549 2.2014 27.8236 1.66993 27.2803C1.13846 26.737 0.717498 26.0923 0.431124 25.3833C0.144751 24.6743 -0.00140976 23.9148 0.00100603 23.1482C0.00100603 17.384 0.00100603 11.6192 0.00100603 5.85389C0.00224135 5.55778 0.0223226 5.26207 0.0611236 4.96861C0.405964 2.24991 2.8666 0.0137839 5.5627 0.00953598C12.5514 -0.00122553 19.5397 -0.00122553 26.5278 0.00953598C28.8816 0.00953598 31.0091 1.59658 31.7614 3.87094C31.8482 4.12412 31.9217 4.38494 32.0002 4.64322ZM15.9914 3.34504C12.5964 3.34504 9.20148 3.36883 5.80484 3.33399C4.32028 3.31955 3.22146 4.60838 3.22898 5.96773C3.26126 11.711 3.26126 17.454 3.22898 23.1966C3.22146 24.5789 4.35117 25.8729 5.83657 25.8304C7.42885 25.787 9.0228 25.8202 10.6167 25.8202C15.8642 25.8202 21.1125 25.8202 26.3617 25.8202C27.0079 25.8202 27.5648 25.6171 28.0207 25.1456C28.5418 24.607 28.7305 23.9417 28.7305 23.2068C28.7305 17.4636 28.7305 11.7206 28.7305 5.97793C28.7312 5.73455 28.7057 5.49182 28.6545 5.25407C28.4516 4.31952 27.5181 3.32465 26.1755 3.33399C22.7813 3.36458 19.3864 3.34504 15.9914 3.34504Z" fill="white"/>
<path d="M15.8675 23.0308C13.4099 23.0308 10.9529 23.0308 8.49639 23.0308C8.27827 23.0396 8.05986 23.024 7.84512 22.9841C6.67617 22.7063 6.19273 21.4174 6.86237 20.3172C7.55121 19.1838 8.26177 18.0641 8.96314 16.9384C9.43657 16.1788 9.90498 15.4159 10.3826 14.6615C10.8234 13.969 11.5515 13.6504 12.2805 13.8017C12.6201 13.8724 12.922 14.0685 13.1279 14.3522C13.3843 14.6861 13.6448 15.0166 13.902 15.3496C14.0563 15.5576 14.2569 15.7254 14.4874 15.8392C14.7178 15.9529 14.9715 16.0094 15.2276 16.004C15.4836 15.9987 15.7348 15.9315 15.9604 15.8082C16.186 15.6848 16.3797 15.5087 16.5254 15.2944C17.2385 14.2656 17.9173 13.2121 18.6237 12.1781C19.0144 11.6072 19.5739 11.3752 20.2485 11.439C20.9081 11.501 21.3674 11.8502 21.6262 12.4721C21.7356 12.7354 21.8475 12.9963 21.9602 13.2588C22.9661 15.6467 23.9725 18.0343 24.9794 20.4217C25.2207 20.9892 25.2541 21.5483 24.9669 22.1013C24.6421 22.7275 24.1319 23.0359 23.4247 23.0359C20.9056 23.024 18.3866 23.0308 15.8675 23.0308Z" fill="white"/>
<path d="M21.1229 8.06334C21.0528 6.54087 22.5874 5.61142 23.5827 5.6403C24.8711 5.67684 26.01 6.84757 25.9941 8.15C25.9782 9.42949 24.8093 10.6053 23.5527 10.607C22.2376 10.6079 21.1146 9.43288 21.1229 8.06334Z" fill="white"/>
</g>
<defs>
<clipPath id="clip0_2_13684">
<rect width="32" height="29" fill="white"/>
</clipPath>
</defs>
</svg>
