<svg width="18" height="17" viewBox="0 0 18 17" fill="none" xmlns="http://www.w3.org/2000/svg">
<g id="Bag - Bold 24px">
<g id="Bag 2">
<path id="Bag 2_2" fill-rule="evenodd" clip-rule="evenodd" d="M12.3959 4.6569H12.5457C14.5135 4.6569 16.1106 6.2194 16.1106 8.13607V11.9694C16.1106 13.8861 14.5135 15.4416 12.5457 15.4416H5.78659C3.81876 15.4416 2.22168 13.8861 2.22168 11.9694V8.13607C2.22168 6.2194 3.81876 4.6569 5.78659 4.6569H5.93632C5.95058 3.82357 6.28568 3.04579 6.89171 2.46246C7.50488 1.87218 8.28916 1.57357 9.17325 1.55273C10.9415 1.55273 12.3745 2.94162 12.3959 4.6569ZM7.64025 3.20584C7.24098 3.59473 7.01996 4.10862 7.0057 4.65723H11.3264C11.305 3.51834 10.3496 2.59473 9.17316 2.59473C8.62417 2.59473 8.05378 2.81 7.64025 3.20584ZM11.8756 7.33094C12.175 7.33094 12.4103 7.09483 12.4103 6.81011V6.00456C12.4103 5.71983 12.175 5.48372 11.8756 5.48372C11.5832 5.48372 11.3408 5.71983 11.3408 6.00456V6.81011C11.3408 7.09483 11.5832 7.33094 11.8756 7.33094ZM6.92722 6.80979C6.92722 7.09451 6.69194 7.33062 6.39248 7.33062C6.10016 7.33062 5.85775 7.09451 5.85775 6.80979V6.00423C5.85775 5.71951 6.10016 5.4834 6.39248 5.4834C6.69194 5.4834 6.92722 5.71951 6.92722 6.00423V6.80979Z" fill="white"/>
</g>
</g>
</svg>
