<svg width="20" height="20" viewBox="0 0 20 20" xmlns="http://www.w3.org/2000/svg">
<path d="M13.3307 8.83376H13.3311C13.7028 8.83361 14.0593 8.68594 14.3222 8.42318C14.5852 8.16042 14.7331 7.80406 14.7335 7.43234V7.43217V4.16634V4.16618C14.7329 3.5741 14.4974 3.00644 14.0787 2.58778C13.6601 2.16911 13.0924 1.93363 12.5003 1.93301H12.5002L7.50016 1.93301L7.50001 1.93301C6.90792 1.93363 6.34027 2.16911 5.9216 2.58778C5.50293 3.00644 5.26745 3.5741 5.26683 4.16618V4.16634V7.43211C5.26683 7.43213 5.26683 7.43215 5.26683 7.43217C5.26673 7.69591 5.34113 7.95432 5.48146 8.17762C5.6218 8.40095 5.82238 8.58008 6.06009 8.69438C6.2978 8.80869 6.56296 8.85351 6.82503 8.8237C7.0871 8.79388 7.33542 8.69064 7.54137 8.52586L10.0002 6.55894L12.459 8.52556C12.4591 8.52562 12.4592 8.52567 12.4592 8.52573C12.7063 8.72442 13.0137 8.83306 13.3307 8.83376ZM6.83354 7.64052L6.83339 7.64064C6.79419 7.67208 6.74689 7.6918 6.69696 7.69752C6.64703 7.70323 6.59649 7.69471 6.5512 7.67294C6.5059 7.65116 6.46769 7.61702 6.44096 7.57446C6.41424 7.5319 6.40009 7.48264 6.40016 7.43238V7.43217V4.16658C6.40078 4.02203 6.43019 3.87964 6.48607 3.74754L9.09279 5.83301L6.83354 7.64052ZM13.6002 7.43217L13.6002 7.43407C13.6008 7.48394 13.587 7.53294 13.5605 7.57519L13.6876 7.65493L13.5605 7.57519C13.534 7.61744 13.4959 7.65114 13.4507 7.67225L13.4506 7.6722L13.4469 7.67409C13.4025 7.69635 13.3527 7.7052 13.3034 7.69955C13.2541 7.69391 13.2075 7.67402 13.1693 7.64231L13.1694 7.64229L13.1672 7.64056L10.9076 5.833L13.5143 3.74754C13.5701 3.87968 13.5996 4.0221 13.6002 4.16669C13.6002 4.16677 13.6002 4.16685 13.6002 4.16693L13.6002 7.43217ZM18.0668 7.49967V7.49952C18.0662 6.90743 17.8307 6.33978 17.4121 5.92111C16.9934 5.50244 16.4257 5.26696 15.8337 5.26634L15.6835 5.26618V5.41634V6.24967V6.39951L15.8333 6.39967C16.125 6.39999 16.4047 6.516 16.6109 6.72226C16.8172 6.92851 16.9332 7.20815 16.9335 7.49984V15.8328C16.9332 16.1245 16.8172 16.4042 16.6109 16.6104C16.4047 16.8167 16.125 16.9327 15.8333 16.933H4.16699C3.87531 16.9327 3.59566 16.8167 3.38941 16.6104C3.18318 16.4042 3.06718 16.1246 3.06683 15.8329V7.49973C3.06718 7.20809 3.18318 6.92848 3.38941 6.72226C3.59566 6.516 3.87531 6.39999 4.16699 6.39967L4.31683 6.39951V6.24967V5.41634V5.26618L4.16667 5.26634C3.57459 5.26696 3.00693 5.50244 2.58827 5.92111C2.1696 6.33978 1.93412 6.90743 1.9335 7.49952V7.49967L1.9335 15.833L1.9335 15.8332C1.93412 16.4252 2.1696 16.9929 2.58827 17.4116C3.00693 17.8302 3.57459 18.0657 4.16667 18.0663H4.16683H15.8335H15.8337C16.4257 18.0657 16.9934 17.8302 17.4121 17.4116C17.8307 16.9929 18.0662 16.4252 18.0668 15.8332V15.833V7.49967ZM10.0002 5.10706L7.45169 3.06812C7.46813 3.06715 7.48461 3.06656 7.50111 3.06634H12.4992C12.5157 3.06656 12.5322 3.06715 12.5486 3.06812L10.0002 5.10706ZM10.8178 10.546C10.9258 10.3843 10.9835 10.1942 10.9835 9.99967C10.9835 9.73888 10.8799 9.48876 10.6955 9.30435C10.5111 9.11994 10.261 9.01634 10.0002 9.01634C9.80568 9.01634 9.61556 9.07401 9.45385 9.18206C9.29214 9.29011 9.16611 9.44369 9.09168 9.62337C9.01725 9.80305 8.99778 10.0008 9.03572 10.1915C9.07367 10.3823 9.16732 10.5575 9.30484 10.695C9.44236 10.8325 9.61758 10.9262 9.80832 10.9641C9.99907 11.0021 10.1968 10.9826 10.3765 10.9082C10.5561 10.8337 10.7097 10.7077 10.8178 10.546ZM10.8178 14.7127C10.9258 14.5509 10.9835 14.3608 10.9835 14.1663C10.9835 13.9055 10.8799 13.6554 10.6955 13.471C10.5111 13.2866 10.261 13.183 10.0002 13.183C9.80568 13.183 9.61556 13.2407 9.45385 13.3487C9.29214 13.4568 9.16611 13.6104 9.09168 13.79C9.01725 13.9697 8.99778 14.1674 9.03572 14.3582C9.07367 14.5489 9.16732 14.7241 9.30484 14.8617C9.44236 14.9992 9.61758 15.0928 9.80832 15.1308C9.99907 15.1687 10.1968 15.1492 10.3765 15.0748C10.5561 15.0004 10.7097 14.8744 10.8178 14.7127Z" stroke="white" stroke-width="0.3"/>
</svg>
