<svg width="30" height="30" viewBox="0 0 30 30" xmlns="http://www.w3.org/2000/svg">
<path d="M30 15L26.6727 11.0143L27.1364 5.74286L22.2136 4.57143L19.6364 0L15 2.08571L10.3636 0L7.78636 4.55714L2.86364 5.71429L3.32727 11L0 15L3.32727 18.9857L2.86364 24.2714L7.78636 25.4429L10.3636 30L15 27.9L19.6364 29.9857L22.2136 25.4286L27.1364 24.2571L26.6727 18.9857L30 15ZM12.3955 21.7429L7.21364 16.3L9.23182 14.1857L12.3955 17.5143L20.3727 9.12857L22.3909 11.2429L12.3955 21.7429Z" />
</svg>
